<svg width="212" height="48" viewBox="0 0 212 48" fill="none" xmlns="http://www.w3.org/2000/svg">
<path d="M82.5913 25.9553H74.0379V34.8323H71.3496V14.7305H83.9745V16.8961H74.0379V23.7775H82.5913V25.9553Z" fill="white"/>
<path d="M92.659 34.8323H89.9707V14.7305H92.659V34.8323Z" fill="white"/>
<path d="M115.815 34.8323H113.114L102.853 19.341V34.8323H100.145V14.7305H102.845L113.131 30.2906V14.7305H115.807L115.815 34.8323Z" fill="white"/>
<path d="M135.852 34.832H122.497V32.9943L129.552 25.2628C130.373 24.3976 131.097 23.4476 131.711 22.4292C132.099 21.7333 132.303 20.9525 132.306 20.1584C132.326 19.6836 132.251 19.2096 132.085 18.7637C131.918 18.3177 131.664 17.9085 131.337 17.5596C131.005 17.2216 130.604 16.957 130.16 16.7833C129.717 16.6095 129.241 16.5306 128.764 16.5517C128.214 16.5185 127.664 16.5977 127.147 16.7844C126.63 16.9711 126.157 17.2612 125.76 17.6365C125.389 18.0434 125.104 18.5187 124.921 19.0349C124.737 19.5512 124.66 20.0981 124.692 20.6441H122.103C122.068 19.8128 122.212 18.9836 122.525 18.2108C122.837 17.438 123.312 16.7388 123.917 16.159C125.123 15.0175 126.74 14.4468 128.768 14.4468C130.661 14.4468 132.158 14.9366 133.258 15.9162C133.805 16.4105 134.236 17.0172 134.52 17.6935C134.803 18.3698 134.933 19.0993 134.9 19.8305C134.9 21.8113 133.621 24.1671 131.062 26.8981L125.616 32.7473H135.852V34.832Z" fill="white"/>
<path d="M153.091 25.9553H144.534V34.8323H141.846V14.7305H154.471V16.8961H144.534V23.7775H153.091V25.9553Z" fill="white"/>
<path d="M162.97 32.6627H172.632V34.8323H160.27V14.7305H162.97V32.6627Z" fill="white"/>
<path d="M189.796 25.5384H180.964V32.6627H191.224V34.8323H178.275V14.7305H191.085V16.8961H180.964V23.3727H189.796V25.5384Z" fill="white"/>
<path d="M203.795 22.4336L208.683 14.7426H211.843L205.408 24.6924L211.999 34.8121H208.806L203.795 26.9875L198.759 34.8323H195.582L202.186 24.7126L195.734 14.7305H198.882L203.795 22.4336Z" fill="white"/>
<path d="M55.8519 24.1458L48.7884 36.2126C48.3874 36.8959 47.811 37.4629 47.1171 37.8566C46.4232 38.2503 45.6364 38.4567 44.8359 38.4551H28.8537L26.071 43.2114H44.6882L43.2065 45.7413C42.8067 46.4251 42.2312 46.9928 41.538 47.3872C40.8448 47.7816 40.0584 47.9888 39.2582 47.9879H13.9551L21.0186 35.9252C21.4198 35.2406 21.9967 34.6722 22.6912 34.2772C23.3857 33.8821 24.1734 33.6743 24.9752 33.6745H40.9656L43.7442 28.9223H25.127L26.6087 26.3924C27.0091 25.7068 27.5856 25.1373 28.2802 24.7415C28.9749 24.3457 29.763 24.1374 30.5652 24.1377L55.8519 24.1458Z" fill="#8569F9"/>
<path d="M24.9905 33.6826H27.6829L24.6006 38.9449C24.1972 39.633 23.6174 40.2044 22.9193 40.6016C22.2212 40.9988 21.4294 41.2078 20.6235 41.2077H17.9434L21.0339 35.9454C21.4333 35.2583 22.0094 34.6872 22.7041 34.2899C23.3987 33.8926 24.1874 33.6831 24.9905 33.6826Z" fill="#705CE0"/>
<path d="M44.0146 26.8985L42.8284 28.9224H25.1348L26.6164 26.3925C26.7148 26.2223 26.8245 26.0586 26.9448 25.9027C27.0646 25.7509 27.1934 25.6063 27.3306 25.4696C27.8403 24.9655 28.4653 24.5893 29.1529 24.3726C29.3191 24.3163 29.4892 24.2716 29.6618 24.239C29.9589 24.1785 30.2615 24.1487 30.5648 24.1499H33.2572L31.6483 26.8985H44.0146Z" fill="#705CE0"/>
<path d="M25.1348 28.9302C25.4467 28.323 25.7668 27.7158 26.0952 27.1248C26.2593 26.8253 26.4153 26.5257 26.5877 26.2262C26.7628 25.9222 26.9735 25.6396 27.2156 25.3842C27.7079 24.8701 28.313 24.474 28.9846 24.2265C29.4914 24.038 30.0273 23.9366 30.5689 23.927H31.0819C33.8359 23.8703 36.5899 23.8622 39.3398 23.8541C42.0897 23.846 44.8478 23.8541 47.5977 23.927L51.7307 24.012C53.1056 24.0605 54.4806 24.0889 55.8596 24.1577C54.4806 24.2265 53.1056 24.2589 51.7307 24.3075L47.61 24.3803C44.8601 24.437 42.1061 24.4451 39.3521 24.4491C36.5981 24.4532 33.8482 24.4491 31.0942 24.3803C30.7593 24.362 30.4236 24.362 30.0887 24.3803C29.0916 24.4752 28.1574 24.9037 27.4414 25.5947C26.9723 26.0798 26.5707 26.6243 26.247 27.2139C25.8571 27.7846 25.5042 28.3554 25.1348 28.9302Z" fill="#B9AEF4"/>
<path d="M13.9551 47.9998C15.3177 45.4618 16.7173 42.9481 18.1333 40.4424C18.8392 39.1916 19.541 37.9327 20.2675 36.69L20.8093 35.7549C21.0034 35.4257 21.2377 35.1212 21.507 34.8482C22.0468 34.2986 22.7105 33.8825 23.4442 33.6338C23.8107 33.511 24.1912 33.4335 24.577 33.4031C24.9875 33.3707 25.3281 33.4031 25.6934 33.3788C26.4199 33.3788 27.1463 33.3788 27.8728 33.3788L32.2357 33.4031C35.1415 33.4031 38.0474 33.4719 40.9573 33.5164L40.8178 33.5934L42.2748 31.2618C42.7591 30.4792 43.2489 29.702 43.7442 28.9302C43.3091 29.7398 42.8699 30.5493 42.4267 31.3589L41.101 33.7877L41.0558 33.8686H40.9614C38.0515 33.9131 35.1456 33.982 32.2398 33.982L27.8769 34.0062C27.1504 34.0062 26.424 34.0062 25.6975 34.0062C25.3363 34.0062 24.9587 34.0062 24.6304 34.0062C24.2912 34.0307 23.9562 34.0959 23.633 34.2005C22.983 34.4113 22.3934 34.7721 21.9133 35.253C21.6703 35.4957 21.4593 35.7677 21.2854 36.0626L20.7436 36.9572C20.0171 38.1958 19.262 39.4223 18.515 40.6529C17.0237 43.114 15.5038 45.563 13.9551 47.9998Z" fill="#B9AEF4"/>
<path d="M44.688 43.2191L25.8574 43.5268L26.2473 42.9155L44.688 43.2191Z" fill="#B9AEF4"/>
<path d="M48.5663 12.269L47.0929 14.7828C46.6904 15.472 46.1109 16.0444 45.4127 16.4423C44.7144 16.8403 43.9222 17.0498 43.1158 17.0496H27.15L24.3673 21.8018H36.7254L35.2519 24.3196C34.8489 25.0081 34.2692 25.5797 33.571 25.9769C32.8728 26.3741 32.0809 26.583 31.2749 26.5824H21.5682L17.312 33.8686C16.9095 34.5578 16.33 35.1302 15.6318 35.5282C14.9336 35.9262 14.1413 36.1356 13.3349 36.1355H6.67773L19.319 14.544C19.7218 13.8575 20.3005 13.2874 20.9971 12.891C21.6937 12.4946 22.4837 12.2857 23.2879 12.2852L48.5663 12.269Z" fill="white"/>
<path d="M36.7302 15.0176L35.544 17.0415H27.1507L25.5418 19.79H21.5729L17.3168 27.0763C16.9134 27.7644 16.3336 28.3358 15.6355 28.733C14.9374 29.1302 14.1456 29.3392 13.3397 29.339H10.6719L19.3197 14.5278C19.7222 13.841 20.3008 13.2708 20.9974 12.8743C21.6941 12.4778 22.4842 12.2691 23.2885 12.269H25.981L24.3721 15.0176H36.7302Z" fill="#E2E1EF"/>
<path d="M41.8886 0.29541L40.4151 2.80916C40.012 3.49779 39.4323 4.06975 38.7343 4.46763C38.0362 4.8655 37.2443 5.07531 36.4381 5.07598H20.4723L17.6896 9.82821H30.0477L28.5742 12.346C28.1709 13.0342 27.591 13.6055 26.893 14.0027C26.1948 14.3999 25.4031 14.6089 24.5971 14.6088H14.8904L10.6343 21.895C10.2309 22.5832 9.65111 23.1545 8.95301 23.5517C8.25491 23.9489 7.46313 24.1579 6.65719 24.1578H0L12.6413 2.55414C13.0438 1.86737 13.6224 1.29712 14.3191 0.900655C15.0157 0.504188 15.8058 0.295454 16.6101 0.29541H41.8886Z" fill="#8569F9"/>
<path d="M0 24.1454C1.09175 22.1417 2.22043 20.1582 3.3286 18.1626L6.71465 12.2081C7.83923 10.2206 8.99665 8.25332 10.1376 6.27795L11.8574 3.31489L12.2678 2.57412C12.4154 2.31339 12.5814 2.06316 12.7644 1.82526C13.5348 0.85306 14.6602 0.216707 15.9001 0.0522779C16.2073 0.00994729 16.5175 -0.00765171 16.8277 -0.000344793H17.6896H21.1495C23.4561 -0.000344793 25.7628 -0.000344792 28.0694 0.0401342L34.9687 0.14538C37.2753 0.198002 39.582 0.226338 41.8886 0.295152C39.582 0.363966 37.2753 0.404445 34.9687 0.444924L28.0489 0.52993C25.7422 0.566361 23.4356 0.558265 21.129 0.570409H17.6691C17.1075 0.556024 16.5456 0.574948 15.9863 0.62708C15.4529 0.706575 14.9392 0.883674 14.4718 1.14926C14 1.41502 13.5825 1.76505 13.2405 2.18147C12.9165 2.63439 12.6204 3.10615 12.354 3.59419L10.6096 6.54106C9.43992 8.50025 8.31123 10.4918 7.12508 12.4429L3.59127 18.3083C2.39281 20.2392 1.23129 22.2105 0 24.1454Z" fill="#B9AEF4"/>
<path d="M18.0383 9.22119L30.0475 9.82838H17.6895L18.0383 9.22119Z" fill="#B9AEF4"/>
</svg>
